Grouping Operations in R
…
Definitions

The following functions are done on dataframes (the objects of rows
and columns we have been working with on the course).

In a dataframe, we should think of variables (the
columns) and observations (the rows). In the following
dataset, the variables are height, mass, hair_color, and so forth, and
the observations are each row representing a character from Star
Wars.

starwars

## # A tibble: 87 × 14
##    name        height  mass hair_…¹ skin_…² eye_c…³ birth…⁴ sex   gender homew…⁵
##    <chr>        <int> <dbl> <chr>   <chr>   <chr>     <dbl> <chr> <chr>  <chr>  
##  1 Luke Skywa…    172    77 blond   fair    blue       19   male  mascu… Tatooi…
##  2 C-3PO          167    75 <NA>    gold    yellow    112   none  mascu… Tatooi…
##  3 R2-D2           96    32 <NA>    white,… red        33   none  mascu… Naboo  
##  4 Darth Vader    202   136 none    white   yellow     41.9 male  mascu… Tatooi…
##  5 Leia Organa    150    49 brown   light   brown      19   fema… femin… Aldera…
##  6 Owen Lars      178   120 brown,… light   blue       52   male  mascu… Tatooi…
##  7 Beru White…    165    75 brown   light   blue       47   fema… femin… Tatooi…
##  8 R5-D4           97    32 <NA>    white,… red        NA   none  mascu… Tatooi…
##  9 Biggs Dark…    183    84 black   light   brown      24   male  mascu… Tatooi…
## 10 Obi-Wan Ke…    182    77 auburn… fair    blue-g…    57   male  mascu… Stewjon
## # … with 77 more rows, 4 more variables: species <chr>, films <list>,
## #   vehicles <list>, starships <list>, and abbreviated variable names
## #   ¹​hair_color, ²​skin_color, ³​eye_color, ⁴​birth_year, ⁵​homeworld
group_by()

group_by simply groups together the observations in a dataframe,
based on one or more variables. It takes a dataframe and one or more
variables as its arguments (or parameters). The following will create a
new dataframe, grouped by the species variable:

by_species = starwars %>% group_by(species)

If you print a grouped dataframe by running its name in a cell,
you’ll see the groups in the output, above the dataframe itself:

by_species

## # A tibble: 87 × 14
## # Groups:   species [38]
##    name        height  mass hair_…¹ skin_…² eye_c…³ birth…⁴ sex   gender homew…⁵
##    <chr>        <int> <dbl> <chr>   <chr>   <chr>     <dbl> <chr> <chr>  <chr>  
##  1 Luke Skywa…    172    77 blond   fair    blue       19   male  mascu… Tatooi…
##  2 C-3PO          167    75 <NA>    gold    yellow    112   none  mascu… Tatooi…
##  3 R2-D2           96    32 <NA>    white,… red        33   none  mascu… Naboo  
##  4 Darth Vader    202   136 none    white   yellow     41.9 male  mascu… Tatooi…
##  5 Leia Organa    150    49 brown   light   brown      19   fema… femin… Aldera…
##  6 Owen Lars      178   120 brown,… light   blue       52   male  mascu… Tatooi…
##  7 Beru White…    165    75 brown   light   blue       47   fema… femin… Tatooi…
##  8 R5-D4           97    32 <NA>    white,… red        NA   none  mascu… Tatooi…
##  9 Biggs Dark…    183    84 black   light   brown      24   male  mascu… Tatooi…
## 10 Obi-Wan Ke…    182    77 auburn… fair    blue-g…    57   male  mascu… Stewjon
## # … with 77 more rows, 4 more variables: species <chr>, films <list>,
## #   vehicles <list>, starships <list>, and abbreviated variable names
## #   ¹​hair_color, ²​skin_color, ³​eye_color, ⁴​birth_year, ⁵​homeworld

You can also group by multiple variables:

by_species_homeworld = starwars %>% group_by(species, homeworld)

by_species_homeworld

## # A tibble: 87 × 14
## # Groups:   species, homeworld [58]
##    name        height  mass hair_…¹ skin_…² eye_c…³ birth…⁴ sex   gender homew…⁵
##    <chr>        <int> <dbl> <chr>   <chr>   <chr>     <dbl> <chr> <chr>  <chr>  
##  1 Luke Skywa…    172    77 blond   fair    blue       19   male  mascu… Tatooi…
##  2 C-3PO          167    75 <NA>    gold    yellow    112   none  mascu… Tatooi…
##  3 R2-D2           96    32 <NA>    white,… red        33   none  mascu… Naboo  
##  4 Darth Vader    202   136 none    white   yellow     41.9 male  mascu… Tatooi…
##  5 Leia Organa    150    49 brown   light   brown      19   fema… femin… Aldera…
##  6 Owen Lars      178   120 brown,… light   blue       52   male  mascu… Tatooi…
##  7 Beru White…    165    75 brown   light   blue       47   fema… femin… Tatooi…
##  8 R5-D4           97    32 <NA>    white,… red        NA   none  mascu… Tatooi…
##  9 Biggs Dark…    183    84 black   light   brown      24   male  mascu… Tatooi…
## 10 Obi-Wan Ke…    182    77 auburn… fair    blue-g…    57   male  mascu… Stewjon
## # … with 77 more rows, 4 more variables: species <chr>, films <list>,
## #   vehicles <list>, starships <list>, and abbreviated variable names
## #   ¹​hair_color, ²​skin_color, ³​eye_color, ⁴​birth_year, ⁵​homeworld

You can, if you want, remove groups using ungroup()

by_species %>% ungroup()

## # A tibble: 87 × 14
##    name        height  mass hair_…¹ skin_…² eye_c…³ birth…⁴ sex   gender homew…⁵
##    <chr>        <int> <dbl> <chr>   <chr>   <chr>     <dbl> <chr> <chr>  <chr>  
##  1 Luke Skywa…    172    77 blond   fair    blue       19   male  mascu… Tatooi…
##  2 C-3PO          167    75 <NA>    gold    yellow    112   none  mascu… Tatooi…
##  3 R2-D2           96    32 <NA>    white,… red        33   none  mascu… Naboo  
##  4 Darth Vader    202   136 none    white   yellow     41.9 male  mascu… Tatooi…
##  5 Leia Organa    150    49 brown   light   brown      19   fema… femin… Aldera…
##  6 Owen Lars      178   120 brown,… light   blue       52   male  mascu… Tatooi…
##  7 Beru White…    165    75 brown   light   blue       47   fema… femin… Tatooi…
##  8 R5-D4           97    32 <NA>    white,… red        NA   none  mascu… Tatooi…
##  9 Biggs Dark…    183    84 black   light   brown      24   male  mascu… Tatooi…
## 10 Obi-Wan Ke…    182    77 auburn… fair    blue-g…    57   male  mascu… Stewjon
## # … with 77 more rows, 4 more variables: species <chr>, films <list>,
## #   vehicles <list>, starships <list>, and abbreviated variable names
## #   ¹​hair_color, ²​skin_color, ³​eye_color, ⁴​birth_year, ⁵​homeworld

Using functions with groups

Groups are only useful when we apply certain functions to them. The
following are some key examples.

tally()

Tally simply counts the number of observations (rows) in each
group.

by_species %>% tally(sort = TRUE)

## # A tibble: 38 × 2
##    species      n
##    <chr>    <int>
##  1 Human       35
##  2 Droid        6
##  3 <NA>         4
##  4 Gungan       3
##  5 Kaminoan     2
##  6 Mirialan     2
##  7 Twi'lek      2
##  8 Wookiee      2
##  9 Zabrak       2
## 10 Aleena       1
## # … with 28 more rows

by_species_homeworld %>% tally(sort = TRUE)

## # A tibble: 58 × 3
## # Groups:   species [38]
##    species  homeworld     n
##    <chr>    <chr>     <int>
##  1 Human    Tatooine      8
##  2 Human    Naboo         5
##  3 Human    <NA>          5
##  4 Droid    <NA>          3
##  5 Gungan   Naboo         3
##  6 Human    Alderaan      3
##  7 Droid    Tatooine      2
##  8 Human    Corellia      2
##  9 Human    Coruscant     2
## 10 Kaminoan Kamino        2
## # … with 48 more rows
…
In other words, it takes each group, and performs a calculation using
all the values in that group.

As its parameters, the summarise() function takes a
grouped dataframe, then a new column name (for the computed value), and
lastly the desired function.

The simplest calculation is to simply count the number of objects in
the group. This is done using the function n().

by_species %>% summarise(total_in_group = n())

## # A tibble: 38 × 2
##    species   total_in_group
##    <chr>              <int>
##  1 Aleena                 1
##  2 Besalisk               1
##  3 Cerean                 1
##  4 Chagrian               1
##  5 Clawdite               1
##  6 Droid                  6
##  7 Dug                    1
##  8 Ewok                   1
##  9 Geonosian              1
## 10 Gungan                 3
## # … with 28 more rows

This is identical to tally(), except it hasn’t been
sorted from largest to smallest using sort = TRUE.

summarise() can use many other functions.

For instance, we can calculate the total height of each species using
sum(), as in the following:

by_species %>% 
  summarise(total_height = sum(height, na.rm = TRUE))

## # A tibble: 38 × 2
##    species   total_height
##    <chr>            <int>
##  1 Aleena              79
##  2 Besalisk           198
##  3 Cerean             198
##  4 Chagrian           196
##  5 Clawdite           168
##  6 Droid              656
##  7 Dug                112
##  8 Ewok                88
##  9 Geonosian          183
## 10 Gungan             626
## # … with 28 more rows

Or the average height using mean():

by_species %>% summarise(average_height = mean(height, na.rm = TRUE))

## # A tibble: 38 × 2
##    species   average_height
##    <chr>              <dbl>
##  1 Aleena               79 
##  2 Besalisk            198 
##  3 Cerean              198 
##  4 Chagrian            196 
##  5 Clawdite            168 
##  6 Droid               131.
##  7 Dug                 112 
##  8 Ewok                 88 
##  9 Geonosian           183 
## 10 Gungan              209.
## # … with 28 more rows

We can also create multiple summary columns at once. The following
calculates the minimum and maximum height of each species, using
min() and max(). Each summary you want to
perform should be separated by a comma. I have also separated each by a
new line, but this is not necessary - it just makes it easier to
read.

by_species %>% summarise(min_height = min(height, na.rm = TRUE), 
                         max_height = max(height, na.rm = TRUE))

## # A tibble: 38 × 3
##    species   min_height max_height
##    <chr>          <int>      <int>
##  1 Aleena            79         79
##  2 Besalisk         198        198
##  3 Cerean           198        198
##  4 Chagrian         196        196
##  5 Clawdite         168        168
##  6 Droid             96        200
##  7 Dug              112        112
##  8 Ewok              88         88
##  9 Geonosian        183        183
## 10 Gungan           196        224
## # … with 28 more rows
…
## Warning: There were 2 warnings in `summarise()`.
## The first warning was:
## ℹ In argument: `min_height = min(height, na.rm = TRUE)`.
## ℹ In group 58: `species = NA`, `homeworld = NA`.
## Caused by warning in `min()`:
## ! no non-missing arguments to min; returning Inf
## ℹ Run ]8;;ide:run:dplyr::last_dplyr_warnings()dplyr::last_dplyr_warnings()]8;; to see the 1 remaining warning.

## `summarise()` has grouped output by 'species'. You can override using the
## `.groups` argument.

## # A tibble: 58 × 4
## # Groups:   species [38]
##    species  homeworld   min_height max_height
##    <chr>    <chr>            <dbl>      <dbl>
##  1 Aleena   Aleen Minor         79         79
##  2 Besalisk Ojom               198        198
##  3 Cerean   Cerea              198        198
##  4 Chagrian Champala           196        196
##  5 Clawdite Zolan              168        168
##  6 Droid    Naboo               96         96
##  7 Droid    Tatooine            97        167
##  8 Droid    <NA>                96        200
##  9 Dug      Malastare          112        112
## 10 Ewok     Endor               88         88
## # … with 48 more rows

count()

As an aside, count() can be used as a shortcut for some
common grouping/summarising operations. The following two are
identical:

starwars %>% group_by(species) %>% summarise(n = sum(height))

## # A tibble: 38 × 2
##    species       n
##    <chr>     <int>
##  1 Aleena       79
##  2 Besalisk    198
##  3 Cerean      198
##  4 Chagrian    196
##  5 Clawdite    168
##  6 Droid        NA
##  7 Dug         112
##  8 Ewok         88
##  9 Geonosian   183
## 10 Gungan      626
## # … with 28 more rows

starwars %>% count(species, wt = height)

## # A tibble: 38 × 2
##    species       n
##    <chr>     <int>
##  1 Aleena       79
##  2 Besalisk    198
##  3 Cerean      198
##  4 Chagrian    196
##  5 Clawdite    168
##  6 Droid       656
##  7 Dug         112
##  8 Ewok         88
##  9 Geonosian   183
## 10 Gungan      626
## # … with 28 more rows

And the following three are identical:

starwars %>% group_by(species) %>% summarise(n = n())

## # A tibble: 38 × 2
##    species       n
##    <chr>     <int>
##  1 Aleena        1
##  2 Besalisk      1
##  3 Cerean        1
##  4 Chagrian      1
##  5 Clawdite      1
##  6 Droid         6
##  7 Dug           1
##  8 Ewok          1
##  9 Geonosian     1
## 10 Gungan        3
## # … with 28 more rows

starwars %>% group_by(species) %>% tally()

## # A tibble: 38 × 2
##    species       n
##    <chr>     <int>
##  1 Aleena        1
##  2 Besalisk      1
##  3 Cerean        1
##  4 Chagrian      1
##  5 Clawdite      1
##  6 Droid         6
##  7 Dug           1
##  8 Ewok          1
##  9 Geonosian     1
## 10 Gungan        3
## # … with 28 more rows

starwars %>% count(species)

## # A tibble: 38 × 2
##    species       n
##    <chr>     <int>
##  1 Aleena        1
##  2 Besalisk      1
##  3 Cerean        1
##  4 Chagrian      1
##  5 Clawdite      1
##  6 Droid         6
##  7 Dug           1
##  8 Ewok          1
##  9 Geonosian     1
## 10 Gungan        3
## # … with 28 more rows

slice_ functions

Another useful set of functions are slice_min() and slice_max().
These return the rows with the highest or lowest values in each group.
We specify which value should be used with order_by = and
how many rows should be returned using n =

The following returns the two observations with the lowest value for
height, for each group.

by_species %>% slice_min(order_by = height, n = 2 )

## # A tibble: 48 × 14
## # Groups:   species [38]
##    name        height  mass hair_…¹ skin_…² eye_c…³ birth…⁴ sex   gender homew…⁵
##    <chr>        <int> <dbl> <chr>   <chr>   <chr>     <dbl> <chr> <chr>  <chr>  
##  1 Ratts Tyer…     79    15 none    grey, … unknown      NA male  mascu… Aleen …
##  2 Dexter Jet…    198   102 none    brown   yellow       NA male  mascu… Ojom   
##  3 Ki-Adi-Mun…    198    82 white   pale    yellow       92 male  mascu… Cerea  
##  4 Mas Amedda     196    NA none    blue    blue         NA male  mascu… Champa…
##  5 Zam Wesell     168    55 blonde  fair, … yellow       NA fema… femin… Zolan  
##  6 R2-D2           96    32 <NA>    white,… red          33 none  mascu… Naboo  
##  7 R4-P17          96    NA none    silver… red, b…      NA none  femin… <NA>   
##  8 Sebulba        112    40 none    grey, … orange       NA male  mascu… Malast…
##  9 Wicket Sys…     88    20 brown   brown   brown         8 male  mascu… Endor  
## 10 Poggle the…    183    80 none    green   yellow       NA male  mascu… Geonos…
## # … with 38 more rows, 4 more variables: species <chr>, films <list>,
## #   vehicles <list>, starships <list>, and abbreviated variable names
## #   ¹​hair_color, ²​skin_color, ³​eye_color, ⁴​birth_year, ⁵​homeworld

The following returns the highest values:

by_species %>% slice_max(order_by = height, n = 2 )

## # A tibble: 48 × 14
## # Groups:   species [38]
##    name        height  mass hair_…¹ skin_…² eye_c…³ birth…⁴ sex   gender homew…⁵
##    <chr>        <int> <dbl> <chr>   <chr>   <chr>     <dbl> <chr> <chr>  <chr>  
##  1 Ratts Tyer…     79    15 none    grey, … unknown      NA male  mascu… Aleen …
##  2 Dexter Jet…    198   102 none    brown   yellow       NA male  mascu… Ojom   
##  3 Ki-Adi-Mun…    198    82 white   pale    yellow       92 male  mascu… Cerea  
##  4 Mas Amedda     196    NA none    blue    blue         NA male  mascu… Champa…
##  5 Zam Wesell     168    55 blonde  fair, … yellow       NA fema… femin… Zolan  
##  6 IG-88          200   140 none    metal   red          15 none  mascu… <NA>   
##  7 C-3PO          167    75 <NA>    gold    yellow      112 none  mascu… Tatooi…
##  8 Sebulba        112    40 none    grey, … orange       NA male  mascu… Malast…
##  9 Wicket Sys…     88    20 brown   brown   brown         8 male  mascu… Endor  
## 10 Poggle the…    183    80 none    green   yellow       NA male  mascu… Geonos…
## # … with 38 more rows, 4 more variables: species <chr>, films <list>,
## #   vehicles <list>, starships <list>, and abbreviated variable names
## #   ¹​hair_color, ²​skin_color, ³​eye_color, ⁴​birth_year, ⁵​homeworld
…
